{
  "profiles": {
    "EPPlusExcelService": {
      "commandName": "Project",
      "launchBrowser": true,
      "environmentVariables": {
        "ASPNETCORE_ENVIRONMENT": "Development"
      },
      "applicationUrl": "https://localhost:50527;http://localhost:50537"
    }
  }
}