{
  "profiles": {
    "SolomonDB": {
      "commandName": "Project",
      "launchBrowser": true,
      "environmentVariables": {
        "ASPNETCORE_ENVIRONMENT": "Development"
      },
      "applicationUrl": "https://localhost:50523;http://localhost:50530"
    }
  }
}